wave/tb_1553_enc.vcd
$version Generated by VerilatedVcd $end
$timescale 1ps $end

 $scope module TOP $end
  $scope module tb_1553_encoder $end
   $var wire 32 9 CLK_PERIOD [31:0] $end
   $var wire 32 : RST_PERIOD [31:0] $end
   $var wire  1 5 tb_data_clk $end
   $var wire  2 # tb_dout [1:0] $end
   $var wire  1 $ tb_en_dout $end
   $var wire  1 6 tb_rst $end
   $var wire 16 % tb_tdata [15:0] $end
   $var wire  1 7 tb_tready $end
   $var wire  8 ' tb_tuser [7:0] $end
   $var wire  1 & tb_tvalid $end
   $scope module dut $end
    $var wire  1 5 aclk $end
    $var wire  1 8 arstn $end
    $var wire 32 = base_1553_clock_rate [31:0] $end
    $var wire  2 D bit_pattern [1:0] $end
    $var wire 32 > bit_rate_per_mhz [31:0] $end
    $var wire 32 ? bits_per_trans [31:0] $end
    $var wire 32 ; clock_speed [31:0] $end
    $var wire  8 0 cmd [7:0] $end
    $var wire  3 P cmd_cmnd [2:0] $end
    $var wire  3 H cmd_data [2:0] $end
    $var wire 32 ) cycle_index [31:0] $end
    $var wire 32 ? cycles_per_mhz [31:0] $end
    $var wire 16 . data [15:0] $end
    $var wire  3 G data_cap [2:0] $end
    $var wire  3 H data_invert [2:0] $end
    $var wire 32 A delay_time [31:0] $end
    $var wire  2 # diff [1:0] $end
    $var wire  1 $ en_diff $end
    $var wire  1 Q enable_diff_output [0:0] $end
    $var wire  3 M error [2:0] $end
    $var wire  1 , parity_bit $end
    $var wire  3 I parity_gen [2:0] $end
    $var wire  3 K pause_ck [2:0] $end
    $var wire  7 2 pause_counter [6:0] $end
    $var wire  6 4 prev_trans_counter [5:0] $end
    $var wire 32 J process_data [31:0] $end
    $var wire 16 / r_data [15:0] $end
    $var wire 40 * reg_data [39:0] $end
    $var wire 16 % s_axis_tdata [15:0] $end
    $var wire  1 7 s_axis_tready $end
    $var wire  8 ' s_axis_tuser [7:0] $end
    $var wire  1 & s_axis_tvalid $end
    $var wire 32 < sample_rate [31:0] $end
    $var wire 32 > samples_per_mhz [31:0] $end
    $var wire 32 @ samples_to_skip [31:0] $end
    $var wire  5 1 skip_counter [4:0] $end
    $var wire  3 - state [2:0] $end
    $var wire  6 N sync_cmd_stat [5:0] $end
    $var wire  6 O sync_data [5:0] $end
    $var wire 32 B sync_pulse_len [31:0] $end
    $var wire 32 C synth_bits_per_trans [31:0] $end
    $var wire 40 E synth_clk [39:0] $end
    $var wire  3 L trans [2:0] $end
    $var wire  6 3 trans_counter [5:0] $end
    $var wire 32 ( xor_index [31:0] $end
   $upscope $end
  $upscope $end
 $upscope $end
$enddefinitions $end


#0
b00 #
0$
b0000000000000000 %
0&
b00000000 '
b00000000000000000000000000000000 (
b00000000000000000000000000000000 )
b0000000000000000000000000000000000000000 *
0,
b000 -
b0000000000000000 .
b0000000000000000 /
b00000000 0
b00000 1
b0000000 2
b000000 3
b000000 4
05
16
07
08
b00000000000000000000000000110010 9
b00000000000000000000000001100100 :
b00000001001100010010110100000000 ;
b00000000000111101000010010000000 <
b00000000000011110100001001000000 =
b00000000000000000000000000000010 >
b00000000000000000000000000010100 ?
b00000000000000000000000000001001 @
b00000000000000000000000001010000 A
b00000000000000000000000000000110 B
b00000000000000000000000000101000 C
b10 D
b1010101010101010101010101010101010101010 E
b001 G
b010 H
b011 I
b00000000000000000000000000000100 J
b101 K
b110 L
b000 M
b000111 N
b111000 O
b100 P
1Q
#25000
b1111111111111111 %
b10001111 '
b1010101010101010101010101010101010101010 *
b1001111 2
b100111 3
b100111 4
15
#50000
05
#75000
15
#100000
05
06
18
#125000
1&
b001 -
b1001110 2
15
17
#150000
05
#175000
b0000000000000000 %
b010 -
b1111111111111111 .
b10001111 0
b1001101 2
15
07
#200000
05
#225000
b011 -
b1001100 2
15
#250000
05
#275000
b100 -
b1001011 2
15
#300000
05
#325000
b00000000000000000000000000010000 (
b00000000000000000000000000100010 )
b0001111010101010101010101010101010101001 *
b101 -
b1001010 2
15
#350000
05
#375000
b1001001 2
15
#400000
05
#425000
b1001000 2
15
#450000
05
#475000
b1000111 2
15
#500000
05
#525000
b1000110 2
15
#550000
05
#575000
b1000101 2
15
#600000
05
#625000
b1000100 2
15
#650000
05
#675000
b1000011 2
15
#700000
05
#725000
b1000010 2
15
#750000
05
#775000
b1000001 2
15
#800000
05
#825000
b1000000 2
15
#850000
05
#875000
b0111111 2
15
#900000
05
#925000
b0111110 2
15
#950000
05
#975000
b0111101 2
15
#1000000
05
#1025000
b0111100 2
15
#1050000
05
#1075000
b0111011 2
15
#1100000
05
#1125000
b0111010 2
15
#1150000
05
#1175000
b0111001 2
15
#1200000
05
#1225000
b0111000 2
15
#1250000
05
#1275000
b0110111 2
15
#1300000
05
#1325000
b0110110 2
15
#1350000
05
#1375000
b0110101 2
15
#1400000
05
#1425000
b0110100 2
15
#1450000
05
#1475000
b0110011 2
15
#1500000
05
#1525000
b0110010 2
15
#1550000
05
#1575000
b0110001 2
15
#1600000
05
#1625000
b0110000 2
15
#1650000
05
#1675000
b0101111 2
15
#1700000
05
#1725000
b0101110 2
15
#1750000
05
#1775000
b0101101 2
15
#1800000
05
#1825000
b0101100 2
15
#1850000
05
#1875000
b0101011 2
15
#1900000
05
#1925000
b0101010 2
15
#1950000
05
#1975000
b0101001 2
15
#2000000
05
#2025000
b0101000 2
15
#2050000
05
#2075000
b0100111 2
15
#2100000
05
#2125000
b0100110 2
15
#2150000
05
#2175000
b0100101 2
15
#2200000
05
#2225000
b0100100 2
15
#2250000
05
#2275000
b0100011 2
15
#2300000
05
#2325000
b0100010 2
15
#2350000
05
#2375000
b0100001 2
15
#2400000
05
#2425000
b0100000 2
15
#2450000
05
#2475000
b0011111 2
15
#2500000
05
#2525000
b0011110 2
15
#2550000
05
#2575000
b0011101 2
15
#2600000
05
#2625000
b0011100 2
15
#2650000
05
#2675000
b0011011 2
15
#2700000
05
#2725000
b0011010 2
15
#2750000
05
#2775000
b0011001 2
15
#2800000
05
#2825000
b0011000 2
15
#2850000
05
#2875000
b0010111 2
15
#2900000
05
#2925000
b0010110 2
15
#2950000
05
#2975000
b0010101 2
15
#3000000
05
#3025000
b0010100 2
15
#3050000
05
#3075000
b0010011 2
15
#3100000
05
#3125000
b0010010 2
15
#3150000
05
#3175000
b0010001 2
15
#3200000
05
#3225000
b0010000 2
15
#3250000
05
#3275000
b0001111 2
15
#3300000
05
#3325000
b0001110 2
15
#3350000
05
#3375000
b0001101 2
15
#3400000
05
#3425000
b0001100 2
15
#3450000
05
#3475000
b0001011 2
15
#3500000
05
#3525000
b0001010 2
15
#3550000
05
#3575000
b0001001 2
15
#3600000
05
#3625000
b0001000 2
15
#3650000
05
#3675000
b0000111 2
15
#3700000
05
#3725000
b0000110 2
15
#3750000
05
#3775000
b0000101 2
15
#3800000
05
#3825000
b0000100 2
15
#3850000
05
#3875000
b0000011 2
15
#3900000
05
#3925000
b0000010 2
15
#3950000
05
#3975000
b0000001 2
15
#4000000
05
#4025000
b0000000 2
15
#4050000
05
#4075000
b110 -
15
#4100000
05
#4125000
b10 #
1$
b0000000000000000 .
b00000000 0
b00001 1
b1001111 2
15
#4150000
05
#4175000
b00010 1
15
#4200000
05
#4225000
b00011 1
15
#4250000
05
#4275000
b00100 1
15
#4300000
05
#4325000
b00101 1
15
#4350000
05
#4375000
b00110 1
15
#4400000
05
#4425000
b00111 1
15
#4450000
05
#4475000
b01000 1
15
#4500000
05
#4525000
b01001 1
15
#4550000
05
#4575000
b00000 1
b100110 3
15
#4600000
05
#4625000
b00001 1
b100110 4
15
#4650000
05
#4675000
b00010 1
15
#4700000
05
#4725000
b00011 1
15
#4750000
05
#4775000
b00100 1
15
#4800000
05
#4825000
b00101 1
15
#4850000
05
#4875000
b00110 1
15
#4900000
05
#4925000
b00111 1
15
#4950000
05
#4975000
b01000 1
15
#5000000
05
#5025000
b01001 1
15
#5050000
05
#5075000
b00000 1
b100101 3
15
#5100000
05
#5125000
b00001 1
b100101 4
15
#5150000
05
#5175000
b00010 1
15
#5200000
05
#5225000
b00011 1
15
#5250000
05
#5275000
b00100 1
15
#5300000
05
#5325000
b00101 1
15
#5350000
05
#5375000
b00110 1
15
#5400000
05
#5425000
b00111 1
15
#5450000
05
#5475000
b01000 1
15
#5500000
05
#5525000
b01001 1
15
#5550000
05
#5575000
b00000 1
b100100 3
15
#5600000
05
#5625000
b01 #
b00001 1
b100100 4
15
#5650000
05
#5675000
b00010 1
15
#5700000
05
#5725000
b00011 1
15
#5750000
05
#5775000
b00100 1
15
#5800000
05
#5825000
b00101 1
15
#5850000
05
#5875000
b00110 1
15
#5900000
05
#5925000
b00111 1
15
#5950000
05
#5975000
b01000 1
15
#6000000
05
#6025000
b01001 1
15
#6050000
05
#6075000
b00000 1
b100011 3
15
#6100000
05
#6125000
b00001 1
b100011 4
15
#6150000
05
#6175000
b00010 1
15
#6200000
05
#6225000
b00011 1
15
#6250000
05
#6275000
b00100 1
15
#6300000
05
#6325000
b00101 1
15
#6350000
05
#6375000
b00110 1
15
#6400000
05
#6425000
b00111 1
15
#6450000
05
#6475000
b01000 1
15
#6500000
05
#6525000
b01001 1
15
#6550000
05
#6575000
b00000 1
b100010 3
15
#6600000
05
#6625000
b00001 1
b100010 4
15
#6650000
05
#6675000
b00010 1
15
#6700000
05
#6725000
b00011 1
15
#6750000
05
#6775000
b00100 1
15
#6800000
05
#6825000
b00101 1
15
#6850000
05
#6875000
b00110 1
15
#6900000
05
#6925000
b00111 1
15
#6950000
05
#6975000
b01000 1
15
#7000000
05
#7025000
b01001 1
15
#7050000
05
#7075000
b00000 1
b100001 3
15
#7100000
05
#7125000
b00001 1
b100001 4
15
#7150000
05
#7175000
b00010 1
15
#7200000
05
#7225000
b00011 1
15
#7250000
05
#7275000
b00100 1
15
#7300000
05
#7325000
b00101 1
15
#7350000
05
#7375000
b00110 1
15
#7400000
05
#7425000
b00111 1
15
#7450000
05
#7475000
b01000 1
15
#7500000
05
#7525000
b01001 1
15
#7550000
05
#7575000
b00000 1
b100000 3
15
#7600000
05
#7625000
b10 #
b00001 1
b100000 4
15
#7650000
05
#7675000
b00010 1
15
#7700000
05
#7725000
b00011 1
15
#7750000
05
#7775000
b00100 1
15
#7800000
05
#7825000
b00101 1
15
#7850000
05
#7875000
b00110 1
15
#7900000
05
#7925000
b00111 1
15
#7950000
05
#7975000
b01000 1
15
#8000000
05
#8025000
b01001 1
15
#8050000
05
#8075000
b00000 1
b011111 3
15
#8100000
05
#8125000
b01 #
b00001 1
b011111 4
15
#8150000
05
#8175000
b00010 1
15
#8200000
05
#8225000
b00011 1
15
#8250000
05
#8275000
b00100 1
15
#8300000
05
#8325000
b00101 1
15
#8350000
05
#8375000
b00110 1
15
#8400000
05
#8425000
b00111 1
15
#8450000
05
#8475000
b01000 1
15
#8500000
05
#8525000
b01001 1
15
#8550000
05
#8575000
b00000 1
b011110 3
15
#8600000
05
#8625000
b10 #
b00001 1
b011110 4
15
#8650000
05
#8675000
b00010 1
15
#8700000
05
#8725000
b00011 1
15
#8750000
05
#8775000
b00100 1
15
#8800000
05
#8825000
b00101 1
15
#8850000
05
#8875000
b00110 1
15
#8900000
05
#8925000
b00111 1
15
#8950000
05
#8975000
b01000 1
15
#9000000
05
#9025000
b01001 1
15
#9050000
05
#9075000
b00000 1
b011101 3
15
#9100000
05
#9125000
b01 #
b00001 1
b011101 4
15
#9150000
05
#9175000
b00010 1
15
#9200000
05
#9225000
b00011 1
15
#9250000
05
#9275000
b00100 1
15
#9300000
05
#9325000
b00101 1
15
#9350000
05
#9375000
b00110 1
15
#9400000
05
#9425000
b00111 1
15
#9450000
05
#9475000
b01000 1
15
#9500000
05
#9525000
b01001 1
15
#9550000
05
#9575000
b00000 1
b011100 3
15
#9600000
05
#9625000
b10 #
b00001 1
b011100 4
15
#9650000
05
#9675000
b00010 1
15
#9700000
05
#9725000
b00011 1
15
#9750000
05
#9775000
b00100 1
15
#9800000
05
#9825000
b00101 1
15
#9850000
05
#9875000
b00110 1
15
#9900000
05
#9925000
b00111 1
15
#9950000
05
#9975000
b01000 1
15
#10000000
05
#10025000
b01001 1
15
#10050000
05
#10075000
b00000 1
b011011 3
15
#10100000
05
#10125000
b01 #
b00001 1
b011011 4
15
#10150000
05
#10175000
b00010 1
15
#10200000
05
#10225000
b00011 1
15
#10250000
05
#10275000
b00100 1
15
#10300000
05
#10325000
b00101 1
15
#10350000
05
#10375000
b00110 1
15
#10400000
05
#10425000
b00111 1
15
#10450000
05
#10475000
b01000 1
15
#10500000
05
#10525000
b01001 1
15
#10550000
05
#10575000
b00000 1
b011010 3
15
#10600000
05
#10625000
b10 #
b00001 1
b011010 4
15
#10650000
05
#10675000
b00010 1
15
#10700000
05
#10725000
b00011 1
15
#10750000
05
#10775000
b00100 1
15
#10800000
05
#10825000
b00101 1
15
#10850000
05
#10875000
b00110 1
15
#10900000
05
#10925000
b00111 1
15
#10950000
05
#10975000
b01000 1
15
#11000000
05
#11025000
b01001 1
15
#11050000
05
#11075000
b00000 1
b011001 3
15
#11100000
05
#11125000
b01 #
b00001 1
b011001 4
15
#11150000
05
#11175000
b00010 1
15
#11200000
05
#11225000
b00011 1
15
#11250000
05
#11275000
b00100 1
15
#11300000
05
#11325000
b00101 1
15
#11350000
05
#11375000
b00110 1
15
#11400000
05
#11425000
b00111 1
15
#11450000
05
#11475000
b01000 1
15
#11500000
05
#11525000
b01001 1
15
#11550000
05
#11575000
b00000 1
b011000 3
15
#11600000
05
#11625000
b10 #
b00001 1
b011000 4
15
#11650000
05
#11675000
b00010 1
15
#11700000
05
#11725000
b00011 1
15
#11750000
05
#11775000
b00100 1
15
#11800000
05
#11825000
b00101 1
15
#11850000
05
#11875000
b00110 1
15
#11900000
05
#11925000
b00111 1
15
#11950000
05
#11975000
b01000 1
15
#12000000
05
#12025000
b01001 1
15
#12050000
05
#12075000
b00000 1
b010111 3
15
#12100000
05
#12125000
b01 #
b00001 1
b010111 4
15
#12150000
05
#12175000
b00010 1
15
#12200000
05
#12225000
b00011 1
15
#12250000
05
#12275000
b00100 1
15
#12300000
05
#12325000
b00101 1
15
#12350000
05
#12375000
b00110 1
15
#12400000
05
#12425000
b00111 1
15
#12450000
05
#12475000
b01000 1
15
#12500000
05
#12525000
b01001 1
15
#12550000
05
#12575000
b00000 1
b010110 3
15
#12600000
05
#12625000
b10 #
b00001 1
b010110 4
15
#12650000
05
#12675000
b00010 1
15
#12700000
05
#12725000
b00011 1
15
#12750000
05
#12775000
b00100 1
15
#12800000
05
#12825000
b00101 1
15
#12850000
05
#12875000
b00110 1
15
#12900000
05
#12925000
b00111 1
15
#12950000
05
#12975000
b01000 1
15
#13000000
05
#13025000
b01001 1
15
#13050000
05
#13075000
b00000 1
b010101 3
15
#13100000
05
#13125000
b01 #
b00001 1
b010101 4
15
#13150000
05
#13175000
b00010 1
15
#13200000
05
#13225000
b00011 1
15
#13250000
05
#13275000
b00100 1
15
#13300000
05
#13325000
b00101 1
15
#13350000
05
#13375000
b00110 1
15
#13400000
05
#13425000
b00111 1
15
#13450000
05
#13475000
b01000 1
15
#13500000
05
#13525000
b01001 1
15
#13550000
05
#13575000
b00000 1
b010100 3
15
#13600000
05
#13625000
b10 #
b00001 1
b010100 4
15
#13650000
05
#13675000
b00010 1
15
#13700000
05
#13725000
b00011 1
15
#13750000
05
#13775000
b00100 1
15
#13800000
05
#13825000
b00101 1
15
#13850000
05
#13875000
b00110 1
15
#13900000
05
#13925000
b00111 1
15
#13950000
05
#13975000
b01000 1
15
#14000000
05
#14025000
b01001 1
15
#14050000
05
#14075000
b00000 1
b010011 3
15
#14100000
05
#14125000
b01 #
b00001 1
b010011 4
15
#14150000
05
#14175000
b00010 1
15
#14200000
05
#14225000
b00011 1
15
#14250000
05
#14275000
b00100 1
15
#14300000
05
#14325000
b00101 1
15
#14350000
05
#14375000
b00110 1
15
#14400000
05
#14425000
b00111 1
15
#14450000
05
#14475000
b01000 1
15
#14500000
05
#14525000
b01001 1
15
#14550000
05
#14575000
b00000 1
b010010 3
15
#14600000
05
#14625000
b10 #
b00001 1
b010010 4
15
#14650000
05
#14675000
b00010 1
15
#14700000
05
#14725000
b00011 1
15
#14750000
05
#14775000
b00100 1
15
#14800000
05
#14825000
b00101 1
15
#14850000
05
#14875000
b00110 1
15
#14900000
05
#14925000
b00111 1
15
#14950000
05
#14975000
b01000 1
15
#15000000
05
#15025000
b01001 1
15
#15050000
05
#15075000
b00000 1
b010001 3
15
#15100000
05
#15125000
b01 #
b00001 1
b010001 4
15
#15150000
05
#15175000
b00010 1
15
#15200000
05
#15225000
b00011 1
15
#15250000
05
#15275000
b00100 1
15
#15300000
05
#15325000
b00101 1
15
#15350000
05
#15375000
b00110 1
15
#15400000
05
#15425000
b00111 1
15
#15450000
05
#15475000
b01000 1
15
#15500000
05
#15525000
b01001 1
15
#15550000
05
#15575000
b00000 1
b010000 3
15
#15600000
05
#15625000
b10 #
b00001 1
b010000 4
15
#15650000
05
#15675000
b00010 1
15
#15700000
05
#15725000
b00011 1
15
#15750000
05
#15775000
b00100 1
15
#15800000
05
#15825000
b00101 1
15
#15850000
05
#15875000
b00110 1
15
#15900000
05
#15925000
b00111 1
15
#15950000
05
#15975000
b01000 1
15
#16000000
05
#16025000
b01001 1
15
#16050000
05
#16075000
b00000 1
b001111 3
15
#16100000
05
#16125000
b01 #
b00001 1
b001111 4
15
#16150000
05
#16175000
b00010 1
15
#16200000
05
#16225000
b00011 1
15
#16250000
05
#16275000
b00100 1
15
#16300000
05
#16325000
b00101 1
15
#16350000
05
#16375000
b00110 1
15
#16400000
05
#16425000
b00111 1
15
#16450000
05
#16475000
b01000 1
15
#16500000
05
#16525000
b01001 1
15
#16550000
05
#16575000
b00000 1
b001110 3
15
#16600000
05
#16625000
b10 #
b00001 1
b001110 4
15
#16650000
05
#16675000
b00010 1
15
#16700000
05
#16725000
b00011 1
15
#16750000
05
#16775000
b00100 1
15
#16800000
05
#16825000
b00101 1
15
#16850000
05
#16875000
b00110 1
15
#16900000
05
#16925000
b00111 1
15
#16950000
05
#16975000
b01000 1
15
#17000000
05
#17025000
b01001 1
15
#17050000
05
#17075000
b00000 1
b001101 3
15
#17100000
05
#17125000
b01 #
b00001 1
b001101 4
15
#17150000
05
#17175000
b00010 1
15
#17200000
05
#17225000
b00011 1
15
#17250000
05
#17275000
b00100 1
15
#17300000
05
#17325000
b00101 1
15
#17350000
05
#17375000
b00110 1
15
#17400000
05
#17425000
b00111 1
15
#17450000
05
#17475000
b01000 1
15
#17500000
05
#17525000
b01001 1
15
#17550000
05
#17575000
b00000 1
b001100 3
15
#17600000
05
#17625000
b10 #
b00001 1
b001100 4
15
#17650000
05
#17675000
b00010 1
15
#17700000
05
#17725000
b00011 1
15
#17750000
05
#17775000
b00100 1
15
#17800000
05
#17825000
b00101 1
15
#17850000
05
#17875000
b00110 1
15
#17900000
05
#17925000
b00111 1
15
#17950000
05
#17975000
b01000 1
15
#18000000
05
#18025000
b01001 1
15
#18050000
05
#18075000
b00000 1
b001011 3
15
#18100000
05
#18125000
b01 #
b00001 1
b001011 4
15
#18150000
05
#18175000
b00010 1
15
#18200000
05
#18225000
b00011 1
15
#18250000
05
#18275000
b00100 1
15
#18300000
05
#18325000
b00101 1
15
#18350000
05
#18375000
b00110 1
15
#18400000
05
#18425000
b00111 1
15
#18450000
05
#18475000
b01000 1
15
#18500000
05
#18525000
b01001 1
15
#18550000
05
#18575000
b00000 1
b001010 3
15
#18600000
05
#18625000
b10 #
b00001 1
b001010 4
15
#18650000
05
#18675000
b00010 1
15
#18700000
05
#18725000
b00011 1
15
#18750000
05
#18775000
b00100 1
15
#18800000
05
#18825000
b00101 1
15
#18850000
05
#18875000
b00110 1
15
#18900000
05
#18925000
b00111 1
15
#18950000
05
#18975000
b01000 1
15
#19000000
05
#19025000
b01001 1
15
#19050000
05
#19075000
b00000 1
b001001 3
15
#19100000
05
#19125000
b01 #
b00001 1
b001001 4
15
#19150000
05
#19175000
b00010 1
15
#19200000
05
#19225000
b00011 1
15
#19250000
05
#19275000
b00100 1
15
#19300000
05
#19325000
b00101 1
15
#19350000
05
#19375000
b00110 1
15
#19400000
05
#19425000
b00111 1
15
#19450000
05
#19475000
b01000 1
15
#19500000
05
#19525000
b01001 1
15
#19550000
05
#19575000
b00000 1
b001000 3
15
#19600000
05
#19625000
b10 #
b00001 1
b001000 4
15
#19650000
05
#19675000
b00010 1
15
#19700000
05
#19725000
b00011 1
15
#19750000
05
#19775000
b00100 1
15
#19800000
05
#19825000
b00101 1
15
#19850000
05
#19875000
b00110 1
15
#19900000
05
#19925000
b00111 1
15
#19950000
05
#19975000
b01000 1
15
#20000000
05
#20025000
b01001 1
15
#20050000
05
#20075000
b00000 1
b000111 3
15
#20100000
05
#20125000
b01 #
b00001 1
b000111 4
15
#20150000
05
#20175000
b00010 1
15
#20200000
05
#20225000
b00011 1
15
#20250000
05
#20275000
b00100 1
15
#20300000
05
#20325000
b00101 1
15
#20350000
05
#20375000
b00110 1
15
#20400000
05
#20425000
b00111 1
15
#20450000
05
#20475000
b01000 1
15
#20500000
05
#20525000
b01001 1
15
#20550000
05
#20575000
b00000 1
b000110 3
15
#20600000
05
#20625000
b10 #
b00001 1
b000110 4
15
#20650000
05
#20675000
b00010 1
15
#20700000
05
#20725000
b00011 1
15
#20750000
05
#20775000
b00100 1
15
#20800000
05
#20825000
b00101 1
15
#20850000
05
#20875000
b00110 1
15
#20900000
05
#20925000
b00111 1
15
#20950000
05
#20975000
b01000 1
15
#21000000
05
#21025000
b01001 1
15
#21050000
05
#21075000
b00000 1
b000101 3
15
#21100000
05
#21125000
b01 #
b00001 1
b000101 4
15
#21150000
05
#21175000
b00010 1
15
#21200000
05
#21225000
b00011 1
15
#21250000
05
#21275000
b00100 1
15
#21300000
05
#21325000
b00101 1
15
#21350000
05
#21375000
b00110 1
15
#21400000
05
#21425000
b00111 1
15
#21450000
05
#21475000
b01000 1
15
#21500000
05
#21525000
b01001 1
15
#21550000
05
#21575000
b00000 1
b000100 3
15
#21600000
05
#21625000
b10 #
b00001 1
b000100 4
15
#21650000
05
#21675000
b00010 1
15
#21700000
05
#21725000
b00011 1
15
#21750000
05
#21775000
b00100 1
15
#21800000
05
#21825000
b00101 1
15
#21850000
05
#21875000
b00110 1
15
#21900000
05
#21925000
b00111 1
15
#21950000
05
#21975000
b01000 1
15
#22000000
05
#22025000
b01001 1
15
#22050000
05
#22075000
b00000 1
b000011 3
15
#22100000
05
#22125000
b01 #
b00001 1
b000011 4
15
#22150000
05
#22175000
b00010 1
15
#22200000
05
#22225000
b00011 1
15
#22250000
05
#22275000
b00100 1
15
#22300000
05
#22325000
b00101 1
15
#22350000
05
#22375000
b00110 1
15
#22400000
05
#22425000
b00111 1
15
#22450000
05
#22475000
b01000 1
15
#22500000
05
#22525000
b01001 1
15
#22550000
05
#22575000
b00000 1
b000010 3
15
#22600000
05
#22625000
b10 #
b00001 1
b000010 4
15
#22650000
05
#22675000
b00010 1
15
#22700000
05
#22725000
b00011 1
15
#22750000
05
#22775000
b00100 1
15
#22800000
05
#22825000
b00101 1
15
#22850000
05
#22875000
b00110 1
15
#22900000
05
#22925000
b00111 1
15
#22950000
05
#22975000
b01000 1
15
#23000000
05
#23025000
b01001 1
15
#23050000
05
#23075000
b00000 1
b000001 3
15
#23100000
05
#23125000
b00001 1
b000001 4
15
#23150000
05
#23175000
b00010 1
15
#23200000
05
#23225000
b00011 1
15
#23250000
05
#23275000
b00100 1
15
#23300000
05
#23325000
b00101 1
15
#23350000
05
#23375000
b00110 1
15
#23400000
05
#23425000
b00111 1
15
#23450000
05
#23475000
b01000 1
15
#23500000
05
#23525000
b01001 1
15
#23550000
05
#23575000
b00000 1
b000000 3
15
#23600000
05
#23625000
b01 #
b00001 1
b000000 4
15
#23650000
05
#23675000
b00010 1
15
#23700000
05
#23725000
b00011 1
15
#23750000
05
#23775000
b00100 1
15
#23800000
05
#23825000
b00101 1
15
#23850000
05
#23875000
b00110 1
15
#23900000
05
#23925000
b00111 1
15
#23950000
05
#23975000
b01000 1
15
#24000000
05
#24025000
b01001 1
15
#24050000
05
#24075000
b001 -
b00000 1
15
17
#24100000
05
#24125000
b00 #
0$
b0000000000000001 %
b1010101010101010101010101010101010101010 *
b010 -
b10001111 0
b1001110 2
b100111 3
b100111 4
15
07
#24150000
05
#24175000
b011 -
b1111111111111111 /
b1001101 2
15
#24200000
05
#24225000
b100 -
b1001100 2
15
#24250000
05
#24275000
b0001110101010101010101010101010101010101 *
b101 -
b1001011 2
15
#24300000
05
#24325000
b1001010 2
15
#24350000
05
#24375000
b1001001 2
15
#24400000
05
#24425000
b1001000 2
15
#24450000
05
#24475000
b1000111 2
15
#24500000
05
#24525000
b1000110 2
15
#24550000
05
#24575000
b1000101 2
15
#24600000
05
#24625000
b1000100 2
15
#24650000
05
#24675000
b1000011 2
15
#24700000
05
#24725000
b1000010 2
15
#24750000
05
#24775000
b1000001 2
15
#24800000
05
#24825000
b1000000 2
15
#24850000
05
#24875000
b0111111 2
15
#24900000
05
#24925000
b0111110 2
15
#24950000
05
#24975000
b0111101 2
15
#25000000
05
#25025000
b0111100 2
15
#25050000
05
#25075000
b0111011 2
15
#25100000
05
#25125000
b0111010 2
15
#25150000
05
#25175000
b0111001 2
15
#25200000
05
#25225000
b0111000 2
15
#25250000
05
#25275000
b0110111 2
15
#25300000
05
#25325000
b0110110 2
15
#25350000
05
#25375000
b0110101 2
15
#25400000
05
#25425000
b0110100 2
15
#25450000
05
#25475000
b0110011 2
15
#25500000
05
#25525000
b0110010 2
15
#25550000
05
#25575000
b0110001 2
15
#25600000
05
#25625000
b0110000 2
15
#25650000
05
#25675000
b0101111 2
15
#25700000
05
#25725000
b0101110 2
15
#25750000
05
#25775000
b0101101 2
15
#25800000
05
#25825000
b0101100 2
15
#25850000
05
#25875000
b0101011 2
15
#25900000
05
#25925000
b0101010 2
15
#25950000
05
#25975000
b0101001 2
15
#26000000
05
#26025000
b0101000 2
15
#26050000
05
#26075000
b0100111 2
15
#26100000
05
#26125000
b0100110 2
15
#26150000
05
#26175000
b0100101 2
15
#26200000
05
#26225000
b0100100 2
15
#26250000
05
#26275000
b0100011 2
15
#26300000
05
#26325000
b0100010 2
15
#26350000
05
#26375000
b0100001 2
15
#26400000
05
#26425000
b0100000 2
15
#26450000
05
#26475000
b0011111 2
15
#26500000
05
#26525000
b0011110 2
15
#26550000
05
#26575000
b0011101 2
15
#26600000
05
#26625000
b0011100 2
15
#26650000
05
#26675000
b0011011 2
15
#26700000
05
#26725000
b0011010 2
15
#26750000
05
#26775000
b0011001 2
15
#26800000
05
#26825000
b0011000 2
15
#26850000
05
#26875000
b0010111 2
15
#26900000
05
#26925000
b0010110 2
15
#26950000
05
#26975000
b0010101 2
15
#27000000
05
#27025000
b0010100 2
15
#27050000
05
#27075000
b0010011 2
15
#27100000
05
#27125000
b0010010 2
15
#27150000
05
#27175000
b0010001 2
15
#27200000
05
#27225000
b0010000 2
15
#27250000
05
#27275000
b0001111 2
15
#27300000
05
#27325000
b0001110 2
15
#27350000
05
#27375000
b0001101 2
15
#27400000
05
#27425000
b0001100 2
15
#27450000
05
#27475000
b0001011 2
15
#27500000
05
#27525000
b0001010 2
15
#27550000
05
#27575000
b0001001 2
15
#27600000
05
#27625000
b0001000 2
15
#27650000
05
#27675000
b0000111 2
15
#27700000
05
#27725000
b0000110 2
15
#27750000
05
#27775000
b0000101 2
15
#27800000
05
#27825000
b0000100 2
15
#27850000
05
#27875000
b0000011 2
15
#27900000
05
#27925000
b0000010 2
15
#27950000
05
#27975000
b0000001 2
15
#28000000
05
#28025000
b0000000 2
15
#28050000
05
#28075000
b110 -
15
#28100000
05
#28125000
b10 #
1$
b00000000 0
b00001 1
b1001111 2
15
#28150000
05
#28175000
b00010 1
15
#28200000
05
#28225000
b00011 1
15
#28250000
05
#28275000
b00100 1
15
#28300000
05
#28325000
b00101 1
15
#28350000
05
#28375000
b00110 1
15
#28400000
05
#28425000
b00111 1
15
#28450000
05
#28475000
b01000 1
15
#28500000
05
#28525000
b01001 1
15
#28550000
05
#28575000
b00000 1
b100110 3
15
#28600000
05
#28625000
b00001 1
b100110 4
15
#28650000
05
#28675000
b00010 1
15
#28700000
05
#28725000
b00011 1
15
#28750000
05
#28775000
b00100 1
15
#28800000
05
#28825000
b00101 1
15
#28850000
05
#28875000
b00110 1
15
#28900000
05
#28925000
b00111 1
15
#28950000
05
#28975000
b01000 1
15
#29000000
05
#29025000
b01001 1
15
#29050000
05
#29075000
b00000 1
b100101 3
15
#29100000
05
#29125000
b00001 1
b100101 4
15
#29150000
05
#29175000
b00010 1
15
#29200000
05
#29225000
b00011 1
15
#29250000
05
#29275000
b00100 1
15
#29300000
05
#29325000
b00101 1
15
#29350000
05
#29375000
b00110 1
15
#29400000
05
#29425000
b00111 1
15
#29450000
05
#29475000
b01000 1
15
#29500000
05
#29525000
b01001 1
15
#29550000
05
#29575000
b00000 1
b100100 3
15
#29600000
05
#29625000
b01 #
b00001 1
b100100 4
15
#29650000
05
#29675000
b00010 1
15
#29700000
05
#29725000
b00011 1
15
#29750000
05
#29775000
b00100 1
15
#29800000
05
#29825000
b00101 1
15
#29850000
05
#29875000
b00110 1
15
#29900000
05
#29925000
b00111 1
15
#29950000
05
#29975000
b01000 1
15
#30000000
05
#30025000
b01001 1
15
#30050000
05
#30075000
b00000 1
b100011 3
15
#30100000
05
#30125000
b00001 1
b100011 4
15
#30150000
05
#30175000
b00010 1
15
#30200000
05
#30225000
b00011 1
15
#30250000
05
#30275000
b00100 1
15
#30300000
05
#30325000
b00101 1
15
#30350000
05
